module gitlab.com/ElijahGood/inazarinbot

go 1.13

require (
	github.com/go-telegram-bot-api/telegram-bot-api v4.6.4+incompatible
	github.com/lib/pq v1.10.1
	github.com/technoweenie/multipartstreamer v1.0.1 // indirect
)
